^C:\USERS\TARUN\DESKTOP\GRAPHICALINTERFACE\GRAPHICALINTERFACE\DEBUG\MAIN.OBJ|C:\USERS\TARUN\DESKTOP\GRAPHICALINTERFACE\GRAPHICALINTERFACE\DEBUG\MOD_UTILS.OBJ|C:\USERS\TARUN\DESKTOP\GRAPHICALINTERFACE\GRAPHICALINTERFACE\DEBUG\MY_VECTOR.OBJ|C:\USERS\TARUN\DESKTOP\GRAPHICALINTERFACE\GRAPHICALINTERFACE\DEBUG\TRACKBALL.OBJ|C:\USERS\TARUN\DESKTOP\GRAPHICALINTERFACE\GRAPHICALINTERFACE\DEBUG\UTILS.OBJ
C:\USERS\TARUN\DESKTOP\GRAPHICALINTERFACE\GRAPHICALINTERFACE\DEPENDENCIES\LIB\FREEGLUT.LIB
C:\USERS\TARUN\DESKTOP\GRAPHICALINTERFACE\GRAPHICALINTERFACE\DEPENDENCIES\LIB\GLEW32.LIB
C:\PROGRAM FILES (X86)\WINDOWS KITS\8.1\LIB\WINV6.3\UM\X86\KERNEL32.LIB
C:\PROGRAM FILES (X86)\WINDOWS KITS\8.1\LIB\WINV6.3\UM\X86\USER32.LIB
C:\PROGRAM FILES (X86)\WINDOWS KITS\8.1\LIB\WINV6.3\UM\X86\GDI32.LIB
C:\PROGRAM FILES (X86)\WINDOWS KITS\8.1\LIB\WINV6.3\UM\X86\WINSPOOL.LIB
C:\PROGRAM FILES (X86)\WINDOWS KITS\8.1\LIB\WINV6.3\UM\X86\COMDLG32.LIB
C:\PROGRAM FILES (X86)\WINDOWS KITS\8.1\LIB\WINV6.3\UM\X86\ADVAPI32.LIB
C:\PROGRAM FILES (X86)\WINDOWS KITS\8.1\LIB\WINV6.3\UM\X86\SHELL32.LIB
C:\PROGRAM FILES (X86)\WINDOWS KITS\8.1\LIB\WINV6.3\UM\X86\OLE32.LIB
C:\PROGRAM FILES (X86)\WINDOWS KITS\8.1\LIB\WINV6.3\UM\X86\OLEAUT32.LIB
C:\PROGRAM FILES (X86)\WINDOWS KITS\8.1\LIB\WINV6.3\UM\X86\UUID.LIB
C:\PROGRAM FILES (X86)\WINDOWS KITS\8.1\LIB\WINV6.3\UM\X86\ODBC32.LIB
C:\PROGRAM FILES (X86)\WINDOWS KITS\8.1\LIB\WINV6.3\UM\X86\ODBCCP32.LIB
C:\USERS\TARUN\DESKTOP\GRAPHICALINTERFACE\GRAPHICALINTERFACE\DEBUG\MAIN.OBJ
C:\USERS\TARUN\DESKTOP\GRAPHICALINTERFACE\GRAPHICALINTERFACE\DEBUG\MOD_UTILS.OBJ
C:\USERS\TARUN\DESKTOP\GRAPHICALINTERFACE\GRAPHICALINTERFACE\DEBUG\MY_VECTOR.OBJ
C:\USERS\TARUN\DESKTOP\GRAPHICALINTERFACE\GRAPHICALINTERFACE\DEBUG\TRACKBALL.OBJ
C:\USERS\TARUN\DESKTOP\GRAPHICALINTERFACE\GRAPHICALINTERFACE\DEBUG\UTILS.OBJ
C:\WINDOWS\SYSTEM32\TZRES.DLL
C:\WINDOWS\GLOBALIZATION\SORTING\SORTDEFAULT.NLS
C:\PROGRAM FILES (X86)\MICROSOFT VISUAL STUDIO 12.0\VC\LIB\MSVCPRTD.LIB
C:\PROGRAM FILES (X86)\WINDOWS KITS\8.1\LIB\WINV6.3\UM\X86\GLU32.LIB
C:\PROGRAM FILES (X86)\WINDOWS KITS\8.1\LIB\WINV6.3\UM\X86\OPENGL32.LIB
C:\PROGRAM FILES (X86)\WINDOWS KITS\8.1\LIB\WINV6.3\UM\X86\WINMM.LIB
C:\PROGRAM FILES (X86)\MICROSOFT VISUAL STUDIO 12.0\VC\LIB\MSVCRTD.LIB
C:\PROGRAM FILES (X86)\MICROSOFT VISUAL STUDIO 12.0\VC\LIB\OLDNAMES.LIB
^C:\USERS\TARUN\DESKTOP\PROJECT WORK\GRAPHICALINTERFACE\GRAPHICALINTERFACE\DEBUG\MAIN.OBJ|C:\USERS\TARUN\DESKTOP\PROJECT WORK\GRAPHICALINTERFACE\GRAPHICALINTERFACE\DEBUG\MOD_UTILS.OBJ|C:\USERS\TARUN\DESKTOP\PROJECT WORK\GRAPHICALINTERFACE\GRAPHICALINTERFACE\DEBUG\MY_VECTOR.OBJ|C:\USERS\TARUN\DESKTOP\PROJECT WORK\GRAPHICALINTERFACE\GRAPHICALINTERFACE\DEBUG\TRACKBALL.OBJ|C:\USERS\TARUN\DESKTOP\PROJECT WORK\GRAPHICALINTERFACE\GRAPHICALINTERFACE\DEBUG\UTILS.OBJ
C:\USERS\TARUN\DESKTOP\PROJECT WORK\GRAPHICALINTERFACE\GRAPHICALINTERFACE\DEPENDENCIES\LIB\FREEGLUT.LIB
C:\USERS\TARUN\DESKTOP\PROJECT WORK\GRAPHICALINTERFACE\GRAPHICALINTERFACE\DEPENDENCIES\LIB\GLEW32.LIB
C:\PROGRAM FILES (X86)\WINDOWS KITS\8.1\LIB\WINV6.3\UM\X86\KERNEL32.LIB
C:\PROGRAM FILES (X86)\WINDOWS KITS\8.1\LIB\WINV6.3\UM\X86\USER32.LIB
C:\PROGRAM FILES (X86)\WINDOWS KITS\8.1\LIB\WINV6.3\UM\X86\GDI32.LIB
C:\PROGRAM FILES (X86)\WINDOWS KITS\8.1\LIB\WINV6.3\UM\X86\WINSPOOL.LIB
C:\PROGRAM FILES (X86)\WINDOWS KITS\8.1\LIB\WINV6.3\UM\X86\COMDLG32.LIB
C:\PROGRAM FILES (X86)\WINDOWS KITS\8.1\LIB\WINV6.3\UM\X86\ADVAPI32.LIB
C:\PROGRAM FILES (X86)\WINDOWS KITS\8.1\LIB\WINV6.3\UM\X86\SHELL32.LIB
C:\PROGRAM FILES (X86)\WINDOWS KITS\8.1\LIB\WINV6.3\UM\X86\OLE32.LIB
C:\PROGRAM FILES (X86)\WINDOWS KITS\8.1\LIB\WINV6.3\UM\X86\OLEAUT32.LIB
C:\PROGRAM FILES (X86)\WINDOWS KITS\8.1\LIB\WINV6.3\UM\X86\UUID.LIB
C:\PROGRAM FILES (X86)\WINDOWS KITS\8.1\LIB\WINV6.3\UM\X86\ODBC32.LIB
C:\PROGRAM FILES (X86)\WINDOWS KITS\8.1\LIB\WINV6.3\UM\X86\ODBCCP32.LIB
C:\USERS\TARUN\DESKTOP\PROJECT WORK\GRAPHICALINTERFACE\GRAPHICALINTERFACE\DEBUG\MAIN.OBJ
C:\USERS\TARUN\DESKTOP\PROJECT WORK\GRAPHICALINTERFACE\GRAPHICALINTERFACE\DEBUG\MOD_UTILS.OBJ
C:\USERS\TARUN\DESKTOP\PROJECT WORK\GRAPHICALINTERFACE\GRAPHICALINTERFACE\DEBUG\MY_VECTOR.OBJ
C:\USERS\TARUN\DESKTOP\PROJECT WORK\GRAPHICALINTERFACE\GRAPHICALINTERFACE\DEBUG\TRACKBALL.OBJ
C:\USERS\TARUN\DESKTOP\PROJECT WORK\GRAPHICALINTERFACE\GRAPHICALINTERFACE\DEBUG\UTILS.OBJ
C:\WINDOWS\SYSTEM32\TZRES.DLL
C:\WINDOWS\GLOBALIZATION\SORTING\SORTDEFAULT.NLS
C:\PROGRAM FILES (X86)\MICROSOFT VISUAL STUDIO 12.0\VC\LIB\MSVCPRTD.LIB
C:\PROGRAM FILES (X86)\WINDOWS KITS\8.1\LIB\WINV6.3\UM\X86\GLU32.LIB
C:\PROGRAM FILES (X86)\WINDOWS KITS\8.1\LIB\WINV6.3\UM\X86\OPENGL32.LIB
C:\PROGRAM FILES (X86)\WINDOWS KITS\8.1\LIB\WINV6.3\UM\X86\WINMM.LIB
C:\PROGRAM FILES (X86)\MICROSOFT VISUAL STUDIO 12.0\VC\LIB\MSVCRTD.LIB
C:\PROGRAM FILES (X86)\MICROSOFT VISUAL STUDIO 12.0\VC\LIB\OLDNAMES.LIB
C:\PROGRAM FILES (X86)\WINDOWS KITS\8.1\BIN\X86\RC.EXE
C:\PROGRAM FILES (X86)\MICROSOFT VISUAL STUDIO 12.0\VC\BIN\CVTRES.EXE
C:\WINDOWS\SYSTEM32\RSAENH.DLL
